*HEADING
: VERIFICATION OF NORMAL DEFINITIONS OF BEAMS AND SHELLS  [S4]
*PREPRINT,ECHO=YES,HISTORY=NO,MODEL=YES
*NODE
 1, 0.0, 0.0, 0.0
 2, 0.0, 0.0, 1.0
 3, 0.0, 5.0, 1.0
 4, 0.0, 5.0, 0.0
 5, 0.0, 0.0, 0.5
 6, 0.0, 2.5, 1.0
 7, 0.0, 5.0, 0.5
 8, 0.0, 2.5, 0.0
 9, 3.0, 5.0, 1.0
 10, 3.0, 5.0, 0.0
 11, 1.5, 5.0, 1.0
 12, 3.0, 5.0, 0.5
 13, 1.5, 5.0, 0.0
*ELEMENT,TYPE=S4, ELSET=SHELL
 1, 1,2,3,4
 2, 4,3,9,10
*SHELL SECTION,ELSET=SHELL,MATERIAL=MAT,SECTION INTEGRATION=GAUSS
1.,
*MATERIAL,NAME=MAT
*DENSITY
7.5E-4, 
*ELASTIC,TYPE=LAMINA
19.6E6,  1.89E6, .38, .93E6, .93E6, .63E6
*BOUNDARY
 1,1,6
 2,1,6
 9,2,3
 10,2
*STEP,PERTURBATION
*STATIC
*CLOAD
 9, 1, 12.5
 10,1, 12.5
*OUTPUT,FIELD
*ELEMENT OUTPUT
COORD,
SF,
ENER,
*OUTPUT,HISTORY,FREQUENCY=1
*ENERGY OUTPUT,VARIABLE=PRESELECT
*OUTPUT,FIELD
*NODE OUTPUT
U,RF,CF,COORD
*EL PRINT
 COORD,
 SF,
 ENER,
*END STEP
